<?xml version="1.0" encoding="UTF-8"?>
<gpx version="1.1"
   creator="MTK - http://www.toursprung.com"
   xmlns="http://www.topografix.com/GPX/1/1"
   xmlns:xsi="http://www.w3.org/2001/XMLSchema-instance"
   xsi:schemaLocation="http://www.topografix.com/GPX/1/1 http://www.topografix.com/GPX/1/1/gpx.xsd"
   xmlns:gpxtpx="http://www.garmin.com/xmlschemas/TrackPointExtension/v1"
   xmlns:gpxx="http://www.garmin.com/xmlschemas/GpxExtensions/v3"
   targetNamespace="http://www.topografix.com/GPX/1/1"
   elementFormDefault="qualified">
   <metadata>
      <name><![CDATA[testaractakip]]></name>
      <desc><![CDATA[<p>
	testt</p>
]]></desc>
   </metadata>
   
      <trk><name><![CDATA[testaractakip]]></name><desc><![CDATA[<p>
	testt</p>
]]></desc><trkseg>
         <trkpt lat="41.00973" lon="28.95356"><ele>22</ele></trkpt>
<trkpt lat="41.00967" lon="28.95357"><ele>22</ele></trkpt>
<trkpt lat="41.00968" lon="28.95396"><ele>22</ele></trkpt>
<trkpt lat="41.00968" lon="28.95452"><ele>27</ele></trkpt>
<trkpt lat="41.01027" lon="28.95452"><ele>28</ele></trkpt>
<trkpt lat="41.01027" lon="28.95544"><ele>35</ele></trkpt>
<trkpt lat="41.01064" lon="28.95544"><ele>39</ele></trkpt>
<trkpt lat="41.01106" lon="28.95546"><ele>40</ele></trkpt>
<trkpt lat="41.01122" lon="28.95733"><ele>45</ele></trkpt>
<trkpt lat="41.01152" lon="28.95734"><ele>47</ele></trkpt>
<trkpt lat="41.012" lon="28.95886"><ele>51</ele></trkpt>
<trkpt lat="41.01212" lon="28.95921"><ele>50</ele></trkpt>
<trkpt lat="41.01218" lon="28.95947"><ele>50</ele></trkpt>
<trkpt lat="41.01218" lon="28.95957"><ele>50</ele></trkpt>
<trkpt lat="41.01217" lon="28.9596"><ele>50</ele></trkpt>
<trkpt lat="41.01241" lon="28.95989"><ele>50</ele></trkpt>
<trkpt lat="41.0127" lon="28.96035"><ele>50</ele></trkpt>
<trkpt lat="41.0133" lon="28.96119"><ele>55</ele></trkpt>
<trkpt lat="41.01384" lon="28.96173"><ele>61</ele></trkpt>
<trkpt lat="41.01458" lon="28.96265"><ele>63</ele></trkpt>
<trkpt lat="41.0151" lon="28.96336"><ele>63</ele></trkpt>
<trkpt lat="41.01505" lon="28.96459"><ele>60</ele></trkpt>
<trkpt lat="41.01498" lon="28.96549"><ele>54</ele></trkpt>
<trkpt lat="41.01497" lon="28.96597"><ele>51</ele></trkpt>
<trkpt lat="41.01499" lon="28.96633"><ele>46</ele></trkpt>
<trkpt lat="41.01504" lon="28.96673"><ele>43</ele></trkpt>
<trkpt lat="41.01556" lon="28.9667"><ele>36</ele></trkpt>
<trkpt lat="41.01556" lon="28.96751"><ele>28</ele></trkpt>
<trkpt lat="41.01629" lon="28.96766"><ele>21</ele></trkpt>
<trkpt lat="41.01687" lon="28.96783"><ele>17</ele></trkpt>
<trkpt lat="41.01703" lon="28.96791"><ele>15</ele></trkpt>
<trkpt lat="41.01726" lon="28.96808"><ele>13</ele></trkpt>
<trkpt lat="41.01755" lon="28.96836"><ele>13</ele></trkpt>
<trkpt lat="41.01763" lon="28.96832"><ele>13</ele></trkpt>
<trkpt lat="41.01784" lon="28.96857"><ele>7</ele></trkpt>
<trkpt lat="41.01795" lon="28.96865"><ele>5</ele></trkpt>
<trkpt lat="41.01817" lon="28.96877"><ele>5</ele></trkpt>
<trkpt lat="41.01826" lon="28.96845"><ele>5</ele></trkpt>
<trkpt lat="41.01831" lon="28.96838"><ele>5</ele></trkpt>
<trkpt lat="41.01839" lon="28.96837"><ele>5</ele></trkpt>
<trkpt lat="41.01845" lon="28.96844"><ele>4</ele></trkpt>
<trkpt lat="41.01846" lon="28.96862"><ele>4</ele></trkpt>
<trkpt lat="41.01824" lon="28.9693"><ele>4</ele></trkpt>
<trkpt lat="41.01858" lon="28.96971"><ele>3</ele></trkpt>
<trkpt lat="41.01848" lon="28.97029"><ele>2</ele></trkpt>
<trkpt lat="41.0184" lon="28.97051"><ele>2</ele></trkpt>
<trkpt lat="41.0184" lon="28.97055"><ele>2</ele></trkpt>
<trkpt lat="41.01836" lon="28.97075"><ele>2</ele></trkpt>
<trkpt lat="41.01824" lon="28.97116"><ele>0</ele></trkpt>
<trkpt lat="41.01826" lon="28.97144"><ele>0</ele></trkpt>
<trkpt lat="41.01829" lon="28.97163"><ele>0</ele></trkpt>
<trkpt lat="41.01832" lon="28.97169"><ele>0</ele></trkpt>
<trkpt lat="41.02044" lon="28.97319"><ele>0</ele></trkpt>
<trkpt lat="41.0219" lon="28.97431"><ele>1</ele></trkpt>
<trkpt lat="41.02199" lon="28.97436"><ele>1</ele></trkpt>
<trkpt lat="41.02185" lon="28.97477"><ele>3</ele></trkpt>
<trkpt lat="41.02197" lon="28.97487"><ele>5</ele></trkpt>
<trkpt lat="41.02208" lon="28.9749"><ele>7</ele></trkpt>
<trkpt lat="41.02286" lon="28.97543"><ele>12</ele></trkpt>
<trkpt lat="41.02297" lon="28.9758"><ele>14</ele></trkpt>
<trkpt lat="41.02301" lon="28.97616"><ele>14</ele></trkpt>
<trkpt lat="41.02299" lon="28.97636"><ele>12</ele></trkpt>
<trkpt lat="41.02298" lon="28.97655"><ele>10</ele></trkpt>
<trkpt lat="41.02292" lon="28.97671"><ele>11</ele></trkpt>
<trkpt lat="41.02289" lon="28.97678"><ele>11</ele></trkpt>
<trkpt lat="41.02325" lon="28.97725"><ele>11</ele></trkpt>
<trkpt lat="41.02349" lon="28.97752"><ele>11</ele></trkpt>
<trkpt lat="41.02396" lon="28.97808"><ele>12</ele></trkpt>
<trkpt lat="41.0242" lon="28.97846"><ele>13</ele></trkpt>
<trkpt lat="41.02448" lon="28.97881"><ele>11</ele></trkpt>
<trkpt lat="41.02546" lon="28.97995"><ele>12</ele></trkpt>
<trkpt lat="41.02573" lon="28.97969"><ele>12</ele></trkpt>
<trkpt lat="41.02589" lon="28.97946"><ele>12</ele></trkpt>
<trkpt lat="41.02624" lon="28.97994"><ele>8</ele></trkpt>
<trkpt lat="41.02653" lon="28.98024"><ele>7</ele></trkpt>
<trkpt lat="41.02656" lon="28.9802"><ele>7</ele></trkpt>
<trkpt lat="41.02674" lon="28.9804"><ele>7</ele></trkpt>
<trkpt lat="41.02694" lon="28.98081"><ele>10</ele></trkpt>
<trkpt lat="41.02721" lon="28.9816"><ele>13</ele></trkpt>
<trkpt lat="41.02747" lon="28.98256"><ele>11</ele></trkpt>
<trkpt lat="41.02771" lon="28.98327"><ele>9</ele></trkpt>
<trkpt lat="41.02793" lon="28.98422"><ele>6</ele></trkpt>
<trkpt lat="41.028" lon="28.98445"><ele>6</ele></trkpt>
<trkpt lat="41.02823" lon="28.98505"><ele>7</ele></trkpt>
<trkpt lat="41.02835" lon="28.98529"><ele>7</ele></trkpt>
<trkpt lat="41.02842" lon="28.98552"><ele>6</ele></trkpt>
      </trkseg></trk>
   
</gpx>
   